<?xml version="1.0" encoding="UTF-8" standalone="no"?>
<svg width="60px" height="30px" viewBox="0 0 60 30" version="1.1" xmlns="http://www.w3.org/2000/svg" xmlns:xlink="http://www.w3.org/1999/xlink" xmlns:sketch="http://www.bohemiancoding.com/sketch/ns">
    <!-- Generator: Sketch 3.4.2 (15857) - http://www.bohemiancoding.com/sketch -->
    <title>i-aislamiento</title>
    <desc>Created with Sketch.</desc>
    <defs></defs>
    <g id="Boostrap3-grid-system-layouts" stroke="none" stroke-width="1" fill="none" fill-rule="evenodd" sketch:type="MSPage">
        <g id="Beneficios" sketch:type="MSArtboardGroup" transform="translate(-129.000000, -889.000000)" fill="#004385">
            <g id="Asesoría-técnica" sketch:type="MSLayerGroup" transform="translate(-1.000000, 375.000000)">
                <g id="i-aislamiento" transform="translate(130.000000, 514.000000)" sketch:type="MSShapeGroup">
                    <path d="M14.5649153,8.02976879 C16.4479661,8.02976879 18.1540678,8.81150289 19.3888136,10.0746243 C20.6235593,11.3377457 21.3876271,13.0834682 21.3876271,15.0102312 C21.3876271,16.9369942 20.6235593,18.6827168 19.3888136,19.9458382 C18.1540678,21.2091329 16.4479661,21.9908671 14.5649153,21.9908671 C12.6816949,21.9908671 10.9752542,21.2091329 9.74067797,19.9458382 C8.50610169,18.6827168 7.74186441,16.9369942 7.74186441,15.0102312 C7.74186441,13.0834682 8.50610169,11.3377457 9.74067797,10.0746243 C10.9752542,8.81150289 12.6816949,8.02976879 14.5649153,8.02976879 L14.5649153,8.02976879 Z M7.68559322,20.8775723 C6.56932203,22.0196532 5.45305085,23.1617341 4.33677966,24.303815 C4.00830508,24.639711 4.00830508,25.1857803 4.33677966,25.5216763 C4.66525424,25.8575723 5.19864407,25.8575723 5.52711864,25.5216763 C6.64338983,24.3795954 7.75966102,23.2375145 8.87610169,22.0954335 C9.20440678,21.7593642 9.20440678,21.2134682 8.87610169,20.8775723 C8.54762712,20.5416763 8.0140678,20.5416763 7.68559322,20.8775723 L7.68559322,20.8775723 Z M20.2989831,22.0479191 C21.4152542,23.19 22.5315254,24.3322543 23.6477966,25.4741618 C23.9762712,25.8102312 24.509661,25.8102312 24.8381356,25.4741618 C25.1664407,25.1384393 25.1664407,24.5923699 24.8381356,24.2566474 C23.7216949,23.1143931 22.6054237,21.9723121 21.489322,20.8302312 C21.1608475,20.4941618 20.6274576,20.4941618 20.2989831,20.8302312 C19.9708475,21.1661272 19.9708475,21.7121965 20.2989831,22.0479191 L20.2989831,22.0479191 Z M21.4428814,9.14306358 C22.5591525,8.00098266 23.6754237,6.85872832 24.7918644,5.7166474 C25.12,5.38075145 25.12,4.83485549 24.7918644,4.49878613 C24.4637288,4.16306358 23.93,4.16306358 23.6016949,4.49878613 C22.4854237,5.64086705 21.3691525,6.78312139 20.2528814,7.92520231 C19.9244068,8.26109827 19.9244068,8.80716763 20.2528814,9.14306358 C20.5808475,9.47895954 21.1147458,9.47895954 21.4428814,9.14306358 L21.4428814,9.14306358 Z M8.82966102,7.97271676 C7.71338983,6.83046243 6.59711864,5.6883815 5.48067797,4.54612717 C5.15237288,4.21023121 4.61881356,4.21023121 4.29033898,4.54612717 C3.96220339,4.88219653 3.96220339,5.42809249 4.29033898,5.76398844 C5.40661017,6.90624277 6.52288136,8.0483237 7.63915254,9.19040462 C7.96762712,9.52647399 8.50118644,9.52647399 8.82966102,9.19040462 C9.15813559,8.85433526 9.15813559,8.30843931 8.82966102,7.97271676 L8.82966102,7.97271676 Z M5.64491525,14.1825434 C6.10983051,14.1825434 6.48677966,14.5683815 6.48677966,15.0440462 C6.48677966,15.5195376 6.10983051,15.9053757 5.64491525,15.9053757 L0.908983051,15.9053757 C0.444067797,15.9053757 0.0672881356,15.5195376 0.0672881356,15.0440462 C0.0672881356,14.5683815 0.444067797,14.1825434 0.908983051,14.1825434 L5.64491525,14.1825434 L5.64491525,14.1825434 Z M13.7552542,24.1359538 C13.7552542,23.660289 14.1323729,23.2744509 14.5972881,23.2744509 C15.0622034,23.2744509 15.4389831,23.660289 15.4389831,24.1359538 L15.4389831,28.9812139 C15.4389831,29.4568786 15.0622034,29.8423699 14.5972881,29.8423699 C14.1323729,29.8423699 13.7552542,29.4568786 13.7552542,28.9812139 L13.7552542,24.1359538 L13.7552542,24.1359538 Z M23.4837288,15.8380925 C23.0188136,15.8380925 22.6418644,15.4522543 22.6418644,14.9765896 C22.6418644,14.5010983 23.0188136,14.1152601 23.4837288,14.1152601 L28.2194915,14.1152601 C28.6844068,14.1152601 29.0613559,14.5010983 29.0613559,14.9765896 C29.0613559,15.4522543 28.6844068,15.8380925 28.2194915,15.8380925 L23.4837288,15.8380925 L23.4837288,15.8380925 Z M15.3732203,5.88468208 C15.3732203,6.36017341 14.9961017,6.74601156 14.5313559,6.74601156 C14.0666102,6.74601156 13.689322,6.36017341 13.689322,5.88468208 L13.689322,1.03942197 C13.689322,0.563757225 14.0666102,0.177919075 14.5313559,0.177919075 C14.9961017,0.177919075 15.3732203,0.563757225 15.3732203,1.03942197 L15.3732203,5.88468208 L15.3732203,5.88468208 Z M18.1988136,11.2924855 C17.2688136,10.3413295 15.9837288,9.75242775 14.5649153,9.75242775 C13.1457627,9.75242775 11.860678,10.3413295 10.9308475,11.2924855 C10.0011864,12.2436416 9.42576271,13.5586127 9.42576271,15.0102312 C9.42576271,16.4620231 10.0011864,17.7769942 10.9308475,18.7281503 C11.860678,19.6793064 13.1457627,20.2682081 14.5649153,20.2682081 C15.9837288,20.2682081 17.2688136,19.6793064 18.1988136,18.7281503 C19.1283051,17.7769942 19.7038983,16.4620231 19.7038983,15.0102312 C19.7038983,13.5586127 19.1283051,12.2436416 18.1988136,11.2924855 L18.1988136,11.2924855 Z" id="Fill-1"></path>
                    <path d="M41.3491525,12.5098266 C39.9362712,12.897052 38.5230508,13.2842775 37.1094915,13.6718497 C36.6611864,13.7944509 36.199661,13.5215029 36.08,13.0630058 C35.9601695,12.6045087 36.2271186,12.1323121 36.6750847,12.009711 C37.5469492,11.7709249 38.4186441,11.5321387 39.29,11.2930058 C37.8562712,10.4462428 36.4222034,9.59895954 34.9879661,8.75184971 C34.5866102,8.51410405 34.449661,7.98815029 34.6818644,7.57751445 C34.9144068,7.16687861 35.4284746,7.02693642 35.83,7.26450867 C37.2635593,8.1116185 38.6971186,8.95855491 40.1301695,9.80514451 C39.8969492,8.91260116 39.6632203,8.01988439 39.429322,7.12734104 C39.3094915,6.66884393 39.5762712,6.1966474 40.0244068,6.07404624 C40.4727119,5.95144509 40.9340678,6.22456647 41.0538983,6.68306358 C41.4322034,8.12930636 41.810678,9.57554913 42.189661,11.0214451 C43.0437288,11.525896 43.8974576,12.0301734 44.7511864,12.5346243 C45.1525424,12.7723699 45.2894915,13.2983237 45.0571186,13.7089595 C44.8245763,14.1195954 44.310678,14.259711 43.909322,14.0219653 C43.0561017,13.5175145 42.2025424,13.0137572 41.3491525,12.5098266 L41.3491525,12.5098266 Z M48.1054237,11.5468786 L48.1054237,8.51947977 C49.1394915,7.46132948 50.1737288,6.40317919 51.2079661,5.3450289 C51.5362712,5.00913295 51.5362712,4.46323699 51.2079661,4.12716763 C50.8794915,3.79127168 50.3459322,3.79127168 50.0174576,4.12716763 C49.38,4.77971098 48.7423729,5.43208092 48.1054237,6.08393064 L48.1054237,1.00560694 C48.1054237,0.530115607 47.7283051,0.144450867 47.2633898,0.144450867 C46.7986441,0.144450867 46.4215254,0.530115607 46.4215254,1.00560694 L46.4215254,6.08393064 C45.7840678,5.43208092 45.1462712,4.77971098 44.509322,4.12716763 C44.180678,3.79127168 43.6472881,3.79127168 43.3188136,4.12716763 C42.990339,4.46323699 42.990339,5.00913295 43.3188136,5.3450289 C44.3530508,6.40317919 45.3874576,7.46132948 46.4215254,8.51947977 L46.4215254,11.5468786 C46.4215254,12.0225434 46.7986441,12.4082081 47.2633898,12.4082081 C47.7283051,12.4082081 48.1054237,12.0225434 48.1054237,11.5468786 L48.1054237,11.5468786 Z M46.4215254,18.4746243 C46.4215254,17.9991329 46.7986441,17.6132948 47.2633898,17.6132948 C47.7283051,17.6132948 48.1054237,17.9991329 48.1054237,18.4746243 L48.1054237,21.5011561 C49.1394915,22.5591329 50.1737288,23.6172832 51.2079661,24.6754335 C51.5362712,25.0113295 51.5362712,25.5572254 51.2079661,25.8932948 C50.8794915,26.2291908 50.3459322,26.2291908 50.0174576,25.8932948 C49.38,25.2409249 48.7423729,24.5883815 48.1054237,23.9367052 L48.1054237,29.0148555 C48.1054237,29.4905202 47.7283051,29.8763584 47.2633898,29.8763584 C46.7986441,29.8763584 46.4215254,29.4905202 46.4215254,29.0148555 L46.4215254,23.9367052 C45.7840678,24.5883815 45.1462712,25.2409249 44.509322,25.8932948 C44.180678,26.2291908 43.6472881,26.2291908 43.3188136,25.8932948 C42.990339,25.5572254 42.990339,25.0113295 43.3188136,24.6754335 C44.3530508,23.6172832 45.3874576,22.5591329 46.4215254,21.5011561 L46.4215254,18.4746243 L46.4215254,18.4746243 Z M50.6122034,14.0224855 C50.2108475,14.2583237 49.6983051,14.1166474 49.4679661,13.7060116 C49.2372881,13.2953757 49.3757627,12.7709827 49.7771186,12.5351445 C50.63,12.0312139 51.4832203,11.5272832 52.3364407,11.023526 C52.7149153,9.5765896 53.0940678,8.12982659 53.4728814,6.68306358 C53.5927119,6.22456647 54.0544068,5.95144509 54.5022034,6.07404624 C54.9505085,6.1966474 55.2172881,6.66884393 55.0974576,7.12734104 C54.8635593,8.02092486 54.629661,8.91398844 54.3959322,9.80705202 C55.830678,8.9599422 57.2652542,8.11213873 58.700339,7.26450867 C59.1015254,7.02867052 59.6144068,7.17034682 59.8447458,7.58080925 C60.0750847,7.9916185 59.9367797,8.51601156 59.5355932,8.75184971 C58.1018644,9.59895954 56.6681356,10.4457225 55.2345763,11.2924855 C56.1067797,11.5317919 56.979322,11.7709249 57.8515254,12.009711 C58.2998305,12.1323121 58.5666102,12.6045087 58.4469492,13.0630058 C58.3271186,13.5215029 57.8655932,13.7944509 57.4174576,13.6718497 C56.0028814,13.2842775 54.5888136,12.8965318 53.1747458,12.5087861 C52.3205085,13.0130636 51.4661017,13.5175145 50.6122034,14.0224855 L50.6122034,14.0224855 Z M43.909322,15.9990173 C43.0561017,16.502948 42.2025424,17.0068786 41.3498305,17.5108092 C39.9366102,17.1230636 38.5230508,16.7358382 37.1094915,16.3486127 C36.6611864,16.2260116 36.199661,16.4991329 36.08,16.9576301 C35.9601695,17.4161272 36.2271186,17.8881503 36.6750847,18.0109249 C37.5469492,18.2495376 38.4191525,18.4883237 39.2905085,18.7274566 C37.8567797,19.5742197 36.4227119,20.4215029 34.9884746,21.2686127 C34.5871186,21.5065318 34.450339,22.0323121 34.6825424,22.442948 C34.9150847,22.8537572 35.4291525,22.9936994 35.830339,22.7559538 C37.2640678,21.9091908 38.6971186,21.0626012 40.1301695,20.2160116 C39.8969492,21.1080347 39.6632203,22.0007514 39.429322,22.8932948 C39.3094915,23.3517919 39.5762712,23.823815 40.0244068,23.9464162 C40.4727119,24.0690173 40.9340678,23.7960694 41.0538983,23.3375723 C41.4322034,21.8911561 41.810678,20.4454335 42.189661,18.999711 C43.0437288,18.4950867 43.8974576,17.9908092 44.7511864,17.4865318 C45.1525424,17.2486127 45.2894915,16.722659 45.0571186,16.3120231 C44.8245763,15.9013873 44.310678,15.7612717 43.909322,15.9990173 L43.909322,15.9990173 Z M49.7742373,17.4854913 C50.6284746,17.9897688 51.4828814,18.4942197 52.3371186,18.9991908 C52.7155932,20.4449133 53.0940678,21.8911561 53.4728814,23.3375723 C53.5927119,23.7960694 54.0544068,24.0690173 54.5022034,23.9464162 C54.9505085,23.823815 55.2172881,23.3517919 55.0974576,22.8932948 C54.8635593,22.0007514 54.629661,21.1080347 54.3964407,20.2160116 C55.8294915,21.0626012 57.2628814,21.9091908 58.6964407,22.7559538 C59.0979661,22.9936994 59.6120339,22.8537572 59.8442373,22.442948 C60.0767797,22.0323121 59.9398305,21.5065318 59.5384746,21.2686127 C58.1044068,20.4215029 56.670678,19.5742197 55.2369492,18.7274566 C56.1084746,18.4883237 56.9798305,18.2495376 57.8515254,18.0109249 C58.2998305,17.8881503 58.5666102,17.4161272 58.4469492,16.9576301 C58.3271186,16.4991329 57.8655932,16.2260116 57.4174576,16.3486127 C56.0038983,16.7358382 54.5901695,17.1230636 53.1771186,17.5108092 C52.3233898,17.0063584 51.469322,16.5020809 50.6161017,15.9979769 C50.2147458,15.7602312 49.7008475,15.9003468 49.4683051,16.3109827 C49.2361017,16.7217919 49.3728814,17.2475723 49.7742373,17.4854913 L49.7742373,17.4854913 Z" id="Fill-2"></path>
                </g>
            </g>
        </g>
    </g>
</svg>