<?xml version="1.0" encoding="UTF-8" standalone="no"?>
<svg width="32px" height="42px" viewBox="0 0 32 42" version="1.1" xmlns="http://www.w3.org/2000/svg" xmlns:xlink="http://www.w3.org/1999/xlink" xmlns:sketch="http://www.bohemiancoding.com/sketch/ns">
    <!-- Generator: Sketch 3.4.2 (15857) - http://www.bohemiancoding.com/sketch -->
    <title>i-calculo</title>
    <desc>Created with Sketch.</desc>
    <defs></defs>
    <g id="Boostrap3-grid-system-layouts" stroke="none" stroke-width="1" fill="none" fill-rule="evenodd" sketch:type="MSPage">
        <g id="Servicios" sketch:type="MSArtboardGroup" transform="translate(-727.000000, -618.000000)" fill="#004385">
            <g id="Asesoría-técnica-Copy-2" sketch:type="MSLayerGroup" transform="translate(711.000000, 618.000000)">
                <g id="i-calculo" transform="translate(16.000000, 0.000000)" sketch:type="MSShapeGroup">
                    <path d="M29.8121081,41.7860829 L2.22551351,41.7860829 C1.06335135,41.7860829 0.117837838,40.8335751 0.117837838,39.6627979 L0.117837838,2.22143005 C0.117837838,1.05108808 1.06335135,0.099015544 2.22551351,0.099015544 L29.8121081,0.099015544 C30.9762162,0.099015544 31.9232432,1.05108808 31.9232432,2.22143005 L31.9232432,39.6627979 C31.9232432,40.8335751 30.9762162,41.7860829 29.8121081,41.7860829 L29.8121081,41.7860829 Z M2.22551351,1.83994819 C2.02075676,1.83994819 1.84756757,2.0146943 1.84756757,2.22143005 L1.84756757,39.6627979 C1.84756757,39.866487 2.024,40.0451503 2.22551351,40.0451503 L29.8121081,40.0451503 C30.0151351,40.0451503 30.1935135,39.866487 30.1935135,39.6627979 L30.1935135,2.22143005 C30.1935135,2.01817617 30.0151351,1.83994819 29.8121081,1.83994819 L2.22551351,1.83994819 L2.22551351,1.83994819 Z" id="Fill-1"></path>
                    <path d="M8.48410811,22.4847979 C8.00627027,22.4847979 7.61902703,22.0950466 7.61902703,21.6143316 L7.61902703,14.7237202 C7.61902703,14.2430052 8.00627027,13.8532539 8.48410811,13.8532539 C8.96151351,13.8532539 9.34875676,14.2430052 9.34875676,14.7237202 L9.34875676,21.6143316 C9.34875676,22.0950466 8.96151351,22.4847979 8.48410811,22.4847979" id="Fill-2"></path>
                    <path d="M11.9076757,19.0397098 L5.06118919,19.0397098 C4.58356757,19.0397098 4.19654054,18.6499585 4.19654054,18.1692435 C4.19654054,17.6885285 4.58356757,17.2987772 5.06118919,17.2987772 L11.9076757,17.2987772 C12.3850811,17.2987772 12.7723243,17.6885285 12.7723243,18.1692435 C12.7723243,18.6499585 12.3850811,19.0397098 11.9076757,19.0397098" id="Fill-3"></path>
                    <path d="M20.8363243,21.4920311 C20.6147027,21.4920311 20.3935135,21.406943 20.2244324,21.2369845 C19.8869189,20.8968497 19.8869189,20.3458446 20.2246486,20.0059275 L25.0672432,15.1334922 C25.4051892,14.7937927 25.9526486,14.7937927 26.2903784,15.1337098 C26.6281081,15.4736269 26.6281081,16.0248497 26.2901622,16.3647668 L21.4475676,21.2372021 C21.2787027,21.406943 21.0575135,21.4920311 20.8363243,21.4920311" id="Fill-4"></path>
                    <path d="M10.9050811,36.7001658 C10.6836757,36.7001658 10.4624865,36.6150777 10.2936216,36.4451192 L5.45232432,31.5729016 C5.11459459,31.2329845 5.11459459,30.6819793 5.45232432,30.3420622 C5.78962162,30.0019275 6.33751351,30.0021451 6.67524324,30.3418446 L11.5165405,35.2140622 C11.8542703,35.5539793 11.8542703,36.1052021 11.5165405,36.4451192 C11.3478919,36.6150777 11.1262703,36.7001658 10.9050811,36.7001658" id="Fill-5"></path>
                    <path d="M6.06378378,36.7001658 C5.84259459,36.7001658 5.62097297,36.6150777 5.45232432,36.4451192 C5.11459459,36.1052021 5.11459459,35.5539793 5.45232432,35.2140622 L10.2936216,30.3418446 C10.6313514,30.0021451 11.179027,30.0019275 11.5165405,30.3420622 C11.8542703,30.6819793 11.8542703,31.2329845 11.5165405,31.5729016 L6.67524324,36.4451192 C6.50637838,36.6150777 6.28518919,36.7001658 6.06378378,36.7001658" id="Fill-6"></path>
                    <path d="M30.9059459,26.4454197 L1.1347027,26.4454197 C0.657081081,26.4454197 0.269837838,26.0556684 0.269837838,25.5749534 C0.269837838,25.0942383 0.657081081,24.704487 1.1347027,24.704487 L30.9059459,24.704487 C31.3833514,24.704487 31.7708108,25.0942383 31.7708108,25.5749534 C31.7708108,26.0556684 31.3833514,26.4454197 30.9059459,26.4454197" id="Fill-7"></path>
                    <path d="M16.0203243,41.4276684 C15.5427027,41.4276684 15.1554595,41.0379171 15.1554595,40.5572021 L15.1554595,10.592487 C15.1554595,10.111772 15.5427027,9.72202073 16.0203243,9.72202073 C16.4979459,9.72202073 16.8851892,10.111772 16.8851892,10.592487 L16.8851892,40.5572021 C16.8851892,41.0379171 16.4979459,41.4276684 16.0203243,41.4276684" id="Fill-8"></path>
                    <path d="M26.9543784,32.4105078 L20.1085405,32.4105078 C19.6309189,32.4105078 19.2436757,32.0207565 19.2436757,31.5400415 C19.2436757,31.0593264 19.6309189,30.6695751 20.1085405,30.6695751 L26.9543784,30.6695751 C27.432,30.6695751 27.8192432,31.0593264 27.8192432,31.5400415 C27.8192432,32.0207565 27.432,32.4105078 26.9543784,32.4105078" id="Fill-9"></path>
                    <path d="M26.9543784,36.1178238 L20.1085405,36.1178238 C19.6309189,36.1178238 19.2436757,35.7280725 19.2436757,35.2473575 C19.2436757,34.7666425 19.6309189,34.3768912 20.1085405,34.3768912 L26.9543784,34.3768912 C27.432,34.3768912 27.8192432,34.7666425 27.8192432,35.2473575 C27.8192432,35.7280725 27.432,36.1178238 26.9543784,36.1178238" id="Fill-10"></path>
                    <path d="M30.9059459,11.1051917 L1.1347027,11.1051917 C0.657081081,11.1051917 0.269837838,10.7154404 0.269837838,10.2347254 C0.269837838,9.75401036 0.657081081,9.36425907 1.1347027,9.36425907 L30.9059459,9.36425907 C31.3833514,9.36425907 31.7708108,9.75401036 31.7708108,10.2347254 C31.7708108,10.7154404 31.3833514,11.1051917 30.9059459,11.1051917" id="Fill-11"></path>
                    <path d="M20.8553514,17.227399 C20.4041081,17.227399 19.9803243,17.0500415 19.6620541,16.7281865 C19.3444324,16.4093782 19.1686486,15.9824145 19.1688649,15.5280311 C19.1690811,15.0738653 19.3450811,14.6475544 19.6646486,14.3272228 C19.9811892,14.0084145 20.4045405,13.8317098 20.8553514,13.8317098 C21.3052973,13.8317098 21.7286486,14.0079793 22.0473514,14.3278756 C22.3667027,14.6484249 22.5422703,15.0747358 22.5422703,15.5289016 C22.5422703,15.9824145 22.3669189,16.408943 22.0482162,16.7294922 C21.7295135,17.0504767 21.3059459,17.227399 20.8553514,17.227399 L20.8553514,17.227399 Z M20.8553514,15.4864663 C20.8410811,15.4864663 20.8294054,15.4940829 20.8248649,15.4986528 C20.8105946,15.5130155 20.8112432,15.545658 20.8259459,15.5602383 C20.8348108,15.5693782 20.8732973,15.573513 20.8869189,15.5591503 C20.8899459,15.5561036 20.8983784,15.5436995 20.8983784,15.5289016 C20.8983784,15.5143212 20.8903784,15.5025699 20.8856216,15.4977824 C20.8828108,15.4949534 20.8702703,15.4864663 20.8553514,15.4864663 L20.8553514,15.4864663 Z" id="Fill-12"></path>
                    <path d="M25.9712432,22.3764249 C25.5210811,22.3764249 25.0975135,22.1997202 24.7785946,21.8789534 C24.1210811,21.2167461 24.1210811,20.1401969 24.7781622,19.4784249 C25.0981622,19.1574404 25.5215135,18.9813886 25.9712432,18.9813886 C26.4216216,18.9813886 26.844973,19.157658 27.1634595,19.4779896 C27.4823784,19.797886 27.6583784,20.2241969 27.6583784,20.6783627 C27.6583784,21.1325285 27.4823784,21.559057 27.163027,21.8796062 C26.8460541,22.199285 26.4220541,22.3764249 25.9712432,22.3764249 L25.9712432,22.3764249 Z M25.9712432,20.6354922 C25.9567568,20.6354922 25.9448649,20.6433264 25.9403243,20.648114 C25.9368649,20.6513782 25.9286486,20.6637824 25.9286486,20.6783627 C25.9286486,20.6931606 25.9368649,20.7053472 25.9418378,20.7103523 C25.9500541,20.7184041 25.9913514,20.7192746 26.0002162,20.7105699 C26.019027,20.6916373 26.019027,20.6653057 26.0015135,20.6476788 C25.9965405,20.6428912 25.9855135,20.6354922 25.9712432,20.6354922 L25.9712432,20.6354922 Z" id="Fill-13"></path>
                </g>
            </g>
        </g>
    </g>
</svg>