<?xml version="1.0" encoding="UTF-8" standalone="no"?>
<svg width="45px" height="42px" viewBox="0 0 45 42" version="1.1" xmlns="http://www.w3.org/2000/svg" xmlns:xlink="http://www.w3.org/1999/xlink" xmlns:sketch="http://www.bohemiancoding.com/sketch/ns">
    <!-- Generator: Sketch 3.4.2 (15857) - http://www.bohemiancoding.com/sketch -->
    <title>i-desarollo</title>
    <desc>Created with Sketch.</desc>
    <defs></defs>
    <g id="Boostrap3-grid-system-layouts" stroke="none" stroke-width="1" fill="none" fill-rule="evenodd" sketch:type="MSPage">
        <g id="Servicios" sketch:type="MSArtboardGroup" transform="translate(-422.000000, -1038.000000)" fill="#004385">
            <g id="Asesoría-técnica-Copy-6" sketch:type="MSLayerGroup" transform="translate(421.437500, 1038.000000)">
                <g id="i-desarollo" transform="translate(1.000000, 0.000000)" sketch:type="MSShapeGroup">
                    <path d="M27.2649143,42 L2.35169524,42 C1.05893333,42 0.00712380952,40.9458 0.00712380952,39.6501 L0.00712380952,2.44356 C0.00712380952,1.14765 1.05893333,0.09345 2.35169524,0.09345 L18.9499619,0.09345 C19.4125905,0.09345 19.7878476,0.46956 19.7878476,0.93345 C19.7878476,1.39734 19.4125905,1.77345 18.9499619,1.77345 L2.35169524,1.77345 C1.98314286,1.77345 1.68331429,2.07396 1.68331429,2.44356 L1.68331429,39.6501 C1.68331429,40.01319 1.98942857,40.32 2.35169524,40.32 L27.2649143,40.32 C27.6208952,40.32 27.9332952,40.0071 27.9332952,39.6501 L27.9332952,10.77594 C27.9332952,10.31205 28.3083429,9.93594 28.7713905,9.93594 C29.234019,9.93594 29.6092762,10.31205 29.6092762,10.77594 L29.6092762,39.6501 C29.6092762,40.92396 28.5356762,42 27.2649143,42" id="Fill-1"></path>
                    <path d="M28.7753714,11.61594 C28.7743238,11.61615 28.7728571,11.61615 28.7713905,11.61594 L20.4581143,11.61594 C19.1643048,11.61594 18.1118667,10.56174 18.1118667,9.26604 L18.1118667,0.93345 C18.1118667,0.59388 18.3159429,0.28749 18.6289714,0.1575 C18.942,0.0273 19.3025905,0.09933 19.5422857,0.33957 L29.3159429,10.13397 C29.498019,10.28811 29.6134667,10.51848 29.6134667,10.77594 C29.6134667,11.23983 29.238419,11.61594 28.7753714,11.61594 L28.7753714,11.61594 Z M19.7878476,2.96121 L19.7878476,9.26604 C19.7878476,9.63543 20.0885143,9.93594 20.4581143,9.93594 L26.7478095,9.93594 L19.7878476,2.96121 L19.7878476,2.96121 Z" id="Fill-2"></path>
                    <path d="M36.8016,38.9886 C35.1025714,38.9886 33.2740571,37.41612 33.2740571,33.96372 L33.2740571,5.98101 C33.2740571,5.51712 33.6493143,5.14101 34.1121524,5.14101 L39.4914667,5.14101 C39.9540952,5.14101 40.3293524,5.51712 40.3293524,5.98101 L40.3293524,33.96372 C40.3293524,37.41612 38.5008381,38.9886 36.8016,38.9886 L36.8016,38.9886 Z M34.9502476,6.82101 L34.9502476,33.96372 C34.9502476,36.15969 35.881581,37.3086 36.8016,37.3086 C37.7218286,37.3086 38.6533714,36.15969 38.6533714,33.96372 L38.6533714,6.82101 L34.9502476,6.82101 L34.9502476,6.82101 Z" id="Fill-3"></path>
                    <path d="M42.9926095,21.6804 L42.9909333,21.6804 C42.5280952,21.67956 42.1536762,21.30282 42.1543048,20.83893 L42.1725333,11.22849 L34.078,11.22849 C33.6151619,11.22849 33.2399048,10.85238 33.2399048,10.38849 C33.2399048,9.9246 33.6151619,9.54849 34.078,9.54849 L43.0120952,9.54849 C43.234819,9.54849 43.4481143,9.63711 43.6052571,9.79503 C43.7624,9.95274 43.8506095,10.16694 43.8501905,10.38996 L43.8304952,20.84208 C43.8298667,21.30534 43.454819,21.6804 42.9926095,21.6804" id="Fill-4"></path>
                    <path d="M36.7106667,42 C36.2478286,42 35.8725714,41.62389 35.8725714,41.16 L35.8725714,38.14608 C35.8725714,37.68219 36.2478286,37.30608 36.7106667,37.30608 C37.1735048,37.30608 37.5487619,37.68219 37.5487619,38.14608 L37.5487619,41.16 C37.5487619,41.62389 37.1735048,42 36.7106667,42" id="Fill-5"></path>
                    <path d="M14.8085143,9.86517 L6.86881905,9.86517 C6.40577143,9.86517 6.03051429,9.48885 6.03051429,9.02496 C6.03051429,8.56107 6.40577143,8.18496 6.86881905,8.18496 L14.8085143,8.18496 C15.2713524,8.18496 15.6466095,8.56107 15.6466095,9.02496 C15.6466095,9.48885 15.2713524,9.86517 14.8085143,9.86517" id="Fill-6"></path>
                    <path d="M22.748,17.3964 L6.86881905,17.3964 C6.40577143,17.3964 6.03051429,17.02029 6.03051429,16.5564 C6.03051429,16.09251 6.40577143,15.7164 6.86881905,15.7164 L22.748,15.7164 C23.2106286,15.7164 23.5858857,16.09251 23.5858857,16.5564 C23.5858857,17.02029 23.2106286,17.3964 22.748,17.3964" id="Fill-7"></path>
                    <path d="M22.748,21.79191 L6.86881905,21.79191 C6.40577143,21.79191 6.03051429,21.4158 6.03051429,20.95191 C6.03051429,20.48802 6.40577143,20.11191 6.86881905,20.11191 L22.748,20.11191 C23.2106286,20.11191 23.5858857,20.48802 23.5858857,20.95191 C23.5858857,21.4158 23.2106286,21.79191 22.748,21.79191" id="Fill-8"></path>
                    <path d="M22.748,26.18784 L6.86881905,26.18784 C6.40577143,26.18784 6.03051429,25.81173 6.03051429,25.34784 C6.03051429,24.88395 6.40577143,24.50784 6.86881905,24.50784 L22.748,24.50784 C23.2106286,24.50784 23.5858857,24.88395 23.5858857,25.34784 C23.5858857,25.81173 23.2106286,26.18784 22.748,26.18784" id="Fill-9"></path>
                    <path d="M14.8085143,30.58503 L6.86881905,30.58503 C6.40577143,30.58503 6.03051429,30.20871 6.03051429,29.74482 C6.03051429,29.28114 6.40577143,28.90482 6.86881905,28.90482 L14.8085143,28.90482 C15.2713524,28.90482 15.6466095,29.28114 15.6466095,29.74482 C15.6466095,30.20871 15.2713524,30.58503 14.8085143,30.58503" id="Fill-10"></path>
                </g>
            </g>
        </g>
    </g>
</svg>